<?xml version="1.0" encoding="utf-8"?>
<svg width="75" height="100">
<path fill="orange" transform="scale(0.1,-0.1) translate(0,-800)" d="M92 797h572q33 0 60.5 -32.5t27.5 -56.5v-823q0 -33 -29 -58.5t-50 -25.5h-586q-31 0 -57.5 31t-26.5 66v797q0 40 29 71t60 31z"/>
</svg>
