<?xml version="1.0" encoding="utf-8"?>
<svg width="75" height="100">
<path fill="black" transform="scale(0.1,-0.1) translate(0,-800)" d="M92 797h572q33 0 60.5 -32.5t27.5 -56.5v-823q0 -33 -29 -58.5t-50 -25.5h-586q-31 0 -57.5 31t-26.5 66v797q0 40 29 71t60 31zM118 766q-32 0 -60 -29 t-28 -55v-771q0 -30 24.5 -54.5t50.5 -24.5h550q23 0 47 24t24 51v779q0 32 -30.5 56t-57.5 24h-520z"/><path fill="white" transform="scale(0.1,-0.1) translate(0,-800)" d="M118 766q-32 0 -60 -29 t-28 -55v-771q0 -30 24.5 -54.5t50.5 -24.5h550q23 0 47 24t24 51v779q0 32 -30.5 56t-57.5 24h-520z"/><path fill="black" transform="scale(0.1,-0.1) translate(0,-800)" d="M484 546q24 0 53 -17t29 -40q0 -7 -7 -12t-15 -5q-26 13 -74 24t-98 11q-48 0 -84 -9t-74 -18q-16 0 -26.5 3.5t-17.5 5.5l-3 16l58 9q28 6 57 12q47 6 100.5 13t101.5 7z"/><path fill="red" transform="scale(0.1,-0.1) translate(0,-800)" d="M422 172l-23 -2l-27 -5l3 -22q5 2 13 2q7 0 24 -6l-1 -7l-21 -10q-15 -4 -16 -6t0 -12l42 3 q4 4 9 8q3 15 3 25q0 12 -6 32zM340 114l-26 -3q-6 -15 3 -20q12 4 24 9zM366 5q3 1 21.5 3.5t24.5 5.5l-1 23q-8 3 -22 -1.5t-21 -4.5q-2 -8 -2 -14v-12zM461 37q-5 2 -12 3.5t-12 0.5l-9 -2q5 -4 8 -11t7 -14l1 -39q-15 -5 -19 -5l-12 2l-4 26q-21 -6 -27.5 -8.5 t-21.5 -12.5q11 -4 38.5 -11.5t34.5 -6.5q16 3 37 7.5t21 24.5q0 22 -4 29.5t-26 16.5zM422 76q-8 4 -19 4q-15 0 -33 -8l-2 -22q7 1 39 7.5t55 6.5q39 0 58.5 -13.5t19.5 -50.5q0 -31 -25 -52t-59 -21q-25 0 -50 13l-56 34q-8 -6 -19.5 -7.5t-21.5 -3.5q-5 4 -13.5 12.5 t-7.5 19.5q9 1 31 2.5t25 1.5l-1 28q-24 -5 -40.5 -8t-42.5 -10q9 -23 14.5 -38.5t5.5 -23.5q0 -26 -18 -26q-11 0 -15.5 16.5t-8 32t-6.5 33.5q-16 -2 -31.5 -5.5t-18.5 -3.5q-4 0 -12 2q19 9 31.5 12t25.5 6l-5 11l-6 15l-4 16q20 -7 26.5 -14.5t13.5 -20.5l90 23v16 l-36 -8q5 2 16 9t18 8q-1 6 1 11q-15 -3 -26.5 -5t-10.5 -9q-5 0 -9 2.5t-8 6.5q-5 0 -5 9q2 15 2 23q-6 14 -13 29.5t-7 19.5q3 2 6 3t6 1q4 0 8.5 -2.5t11 -9t8.5 -12t3 -8.5q4 0 12 2.5t21 8.5v16l-34 -1q-2 4 -3 9q18 14 43.5 23.5t31 22.5t9 20t3.5 14q-21 -3 -38.5 -6 t-31.5 -11q11 -14 9 -25t-14 -11q-12 6 -13.5 8t-3.5 23q-15 2 -21 1q-18 -5 -25 -6.5t-15 -1.5q-9 0 -24 7l-14 16l22 2l34 -2q18 0 31 5q2 8 -1 19t-3 13q0 7 5 12q3 6 8 9t9 6l7 -8q1 -4 1.5 -12t1.5 -17q0 -13 6 -16q18 5 39.5 10.5t34.5 4.5l1 18q-4 13 -14.5 22 t-12.5 18q2 12 23 12q8 0 20 -2.5t17 -9.5t7 -15l-3 -37l33 4q13 0 27 1t17 1l20 -2q5 -2 11 -15l-1 -21q-16 -4 -29 -4q-3 0 -30.5 4.5t-50.5 4.5q-5 0 -11.5 -11t-21.5 -32q5 -2 14.5 -1t19.5 2q18 0 22 -3t4 -20v-18q0 -30 -2.5 -47t-10.5 -25z"/>
</svg>
