<?xml version="1.0" encoding="utf-8"?>
<svg width="75" height="100">
<path fill="black" transform="scale(0.1,-0.1) translate(0,-800)" d="M92 797h572q33 0 60.5 -32.5t27.5 -56.5v-823q0 -33 -29 -58.5t-50 -25.5h-586q-31 0 -57.5 31t-26.5 66v797q0 40 29 71t60 31zM118 766q-32 0 -60 -29 t-28 -55v-771q0 -30 24.5 -54.5t50.5 -24.5h550q23 0 47 24t24 51v779q0 32 -30.5 56t-57.5 24h-520z"/><path fill="white" transform="scale(0.1,-0.1) translate(0,-800)" d="M118 766q-32 0 -60 -29 t-28 -55v-771q0 -30 24.5 -54.5t50.5 -24.5h550q23 0 47 24t24 51v779q0 32 -30.5 56t-57.5 24h-520z"/><path fill="green" transform="scale(0.1,-0.1) translate(0,-800)" d="M373 710q32 0 48.5 -9t16.5 -22q0 -12 -14 -23v-104q13 -7 13 -22q0 -14 -15 -20v-103q15 -11 15 -25q0 -13 -16 -21.5t-49 -8.5q-70 0 -70 32q0 13 16 23v103q-16 7 -16 20q0 12 16 22v103q-15 9 -15 22q0 33 70 33zM340 414q14 3 31 3q18 0 29 -3v87q-3 -1 -10 -2 t-20 -1q-18 0 -30 3v-87zM340 649v-88q4 1 17 2t14 1q18 0 29 -3v88q-12 -3 -30 -3t-30 3zM372 249q32 0 48.5 -9t16.5 -22q0 -12 -14 -23v-104q13 -7 13 -22q0 -14 -15 -20v-103q15 -11 15 -25q0 -13 -16 -21.5t-49 -8.5q-70 0 -70 32q0 13 16 23v103q-16 7 -16 20 q0 12 16 22v103q-15 9 -15 22q0 33 70 33zM339 -47q14 3 31 3q18 0 29 -3v87q-9 -4 -30 -4q-19 0 -30 4v-87zM339 188v-88q4 1 17 2t14 1q18 0 29 -3v88q-12 -3 -30 -3t-30 3z"/>
</svg>
