<?xml version="1.0" encoding="utf-8"?>
<svg width="75" height="100">
<path fill="black" transform="scale(0.1,-0.1) translate(0,-800)" d="M113 798h531q43 0 74 -28t31 -60v-814q0 -39 -29.5 -66.5t-53.5 -27.5h-582q-26 0 -53.5 28.5t-27.5 60.5v809q0 36 28.5 67t81.5 31zM109 763q-36 0 -57.5 -25.5t-21.5 -58.5v-778q0 -23 25.5 -45.5t53.5 -22.5v930zM144 763v-930h92v930h-92zM271 763v-930h88v930h-88z M394 763v-930h87v930h-87zM517 763v-930h92v930h-92zM644 763v-930q37 11 58 32.5t21 41.5v781q0 35 -22 55t-57 20z"/>
</svg>
