<?xml version="1.0" encoding="utf-8"?>
<svg width="75" height="100">
<path fill="white" transform="scale(0.1,-0.1) translate(0,-800)" d="M118 766q-32 0 -60 -29 t-28 -55v-771q0 -30 24.5 -54.5t50.5 -24.5h550q23 0 47 24t24 51v779q0 32 -30.5 56t-57.5 24h-520z"/>
</svg>
