<?xml version="1.0" encoding="utf-8"?>
<svg width="75" height="100">
<path fill="green" transform="scale(0.1,-0.1) translate(0,-800)" d="M566 698q32 0 48.5 -9t16.5 -22q0 -12 -14 -23v-104q13 -7 13 -22q0 -14 -15 -20v-103q15 -11 15 -25q0 -13 -16 -21.5t-49 -8.5q-70 0 -70 32q0 13 16 23v103q-16 7 -16 20q0 12 16 22v103q-15 9 -15 22q0 33 70 33zM533 402q14 3 31 3q18 0 29 -3v87q-3 -1 -10 -2 t-20 -1q-18 0 -30 3v-87zM533 637v-88q4 1 17 2t14 1q18 0 29 -3v88q-12 -3 -30 -3t-30 3zM566 266q32 0 48.5 -9t16.5 -22q0 -12 -14 -23v-104q13 -7 13 -22q0 -14 -15 -20v-103q15 -11 15 -25q0 -13 -16 -21.5t-49 -8.5q-70 0 -70 32q0 13 16 23v103q-16 7 -16 20 q0 12 16 22v103q-15 9 -15 22q0 33 70 33zM533 -30q14 3 31 3q18 0 29 -3v87q-3 -1 -10 -2t-20 -1q-18 0 -30 3v-87zM533 205v-88q4 1 17 2t14 1q18 0 29 -3v88q-12 -3 -30 -3t-30 3zM203 698q32 0 48.5 -9t16.5 -22q0 -12 -14 -23v-104q13 -7 13 -22q0 -14 -15 -20v-103 q15 -11 15 -25q0 -13 -16 -21.5t-49 -8.5q-70 0 -70 32q0 13 16 23v103q-16 7 -16 20q0 12 16 22v103q-15 9 -15 22q0 33 70 33zM170 402q14 3 31 3q18 0 29 -3v87q-3 -1 -10 -2t-20 -1q-18 0 -30 3v-87zM170 637v-88q4 1 17 2t14 1q18 0 29 -3v88q-12 -3 -30 -3t-30 3z M203 266q32 0 48.5 -9t16.5 -22q0 -12 -14 -23v-104q13 -7 13 -22q0 -14 -15 -20v-103q15 -11 15 -25q0 -13 -16 -21.5t-49 -8.5q-70 0 -70 32q0 13 16 23v103q-16 7 -16 20q0 12 16 22v103q-15 9 -15 22q0 33 70 33zM170 -30q14 3 31 3q18 0 29 -3v87q-3 -1 -10 -2t-20 -1 q-18 0 -30 3v-87zM170 205v-88q4 1 17 2t14 1q18 0 29 -3v88q-12 -3 -30 -3t-30 3z"/><path fill="red" transform="scale(0.1,-0.1) translate(0,-800)" d="M387 484q32 0 48.5 -9t16.5 -22q0 -12 -14 -23v-104q13 -7 13 -22q0 -14 -15 -20v-103q15 -11 15 -25q0 -13 -16 -21.5t-49 -8.5q-70 0 -70 32q0 13 16 23v103q-16 7 -16 20q0 12 16 22v103 q-15 9 -15 22q0 33 70 33zM354 188q14 3 31 3q18 0 29 -3v87q-3 -1 -10 -2t-20 -1q-18 0 -30 3v-87zM354 423v-88q4 1 17 2t14 1q18 0 29 -3v88q-12 -3 -30 -3t-30 3z"/>
</svg>
