<?xml version="1.0" encoding="utf-8"?>
<svg width="75" height="100">
<path fill="black" transform="scale(0.1,-0.1) translate(0,-800)" d="M376 586q3 -12 3 -24q0 -13 -3.5 -31t-3.5 -22q12 -2 27.5 1.5t33.5 8.5q30 0 30 -42q-17 -8 -44.5 -18.5t-51.5 -17.5q-4 -15 -13.5 -42t-16.5 -44q37 10 75 21q41 8 81 8q48 0 68.5 -13.5t20.5 -55.5q0 -90 -36.5 -194t-78.5 -104q-23 0 -44 8t-99 48l20 -3 q-3 19 -4 51t-1 35l-60 -21q-8 0 -14.5 11t-6.5 19q0 5 25.5 24.5t52.5 55.5q-23 -1 -30 -1t-19 3q15 7 30 15q-13 6 -25 16t-20 21q-24 -7 -44 -12t-26 -5q-4 0 -8.5 2t-7.5 3q14 12 38.5 22.5t34.5 14.5q-9 7 -14 13q30 11 46.5 40.5t16.5 51.5l-35 -3.5t-34 -1.5 q-36 0 -66 22q29 4 66 12t83 27q0 44 -5 52q-13 9 -27 26q0 13 8 23t29 10q19 0 49 -10zM131 280q23 -13 41.5 -48t25.5 -66.5t23 -60.5t16 -37q0 -13 -4 -17.5t-8 -6.5q-68 26 -74.5 62.5t-16.5 125.5zM295 313l30 -20v-12t-3 -15q11 3 33.5 31t20.5 41q-3 3 -9 3 q-13 0 -29.5 -7t-42.5 -21zM417 348q4 -2 7 -4.5t3 -6.5q0 -10 -20.5 -32t-21.5 -23q10 0 21 -0.5t11 -5.5q0 -8 -10.5 -15.5t-17.5 -11.5v-28q16 2 19 2q18 0 24 -17q-30 -8 -37.5 -15t-11.5 -11q-4 -33 -6 -59t-9 -55q14 0 28.5 -1t29.5 -2q22 0 39 11t36 100.5t19 127.5 q0 29 -16 40.5t-41 11.5q-12 0 -26.5 -2.5t-19.5 -3.5zM336 211l1 -16l-21 -8z"/>
</svg>
